{
  "is_debug": true,
  "initial_scene" : "basic_example",
  "character": {
    "width": 5,
    "height": 20
  },
  "portals": {
    "basic_example<->scene1": {
      "scenes": ["basic_example", "scene1"]
    }
  },
  "scenes": {
    "basic_example": {
      "default_starting_position": 20,
      "width": 300,
      "portals": {
        "basic_example<->scene1" : {
          "position": 70
        }
      },
      "entities" : {
        "door" : {
          "width": 10,
          "height": 23,
          "position": 70,
          "appearance": {
            "type": "rectangle",
            "color": [150, 30, 80]
          },
          "interaction": {
            "type": "portal",
            "payload": {
              "name": "basic_example<->scene1"
            }
          }
        }
      }
    },
    "scene1" : {
      "default_starting_position": 40,
      "width": 100,
      "portals": {
        "basic_example<->scene1": {
          "position": 80
        }
      },
      "entities" : {
        "door" : {
          "width": 10,
          "height": 23,
          "position": 80,
          "appearance": {
            "type": "rectangle",
            "color": [150, 30, 250]
          },
          "interaction": {
            "type": "portal",
            "payload": {
              "name": "basic_example<->scene1"
            }
          }
        }
      }
    }
  }
}
  
